Assignment 14: Twitters Mining with rtweet
…
Plot 7:

users <- c("KimKardashian", "justinbieber", "taylorswift13",
           "espn", "JoelEmbiid", "cstonehoops", "KUHoops",
           "upshotnyt", "fivethirtyeight", "hadleywickham",
           "cnn", "foxnews", "msnbc", "maddow", "seanhannity",
           "potus", "epa", "hillaryclinton", "realdonaldtrump",
           "natesilver538", "ezraklein", "annecoulter")

famous_tweeters <- lookup_users(users)

famous_tweeters

## # A tibble: 21 x 90
##    user_id    status_id           created_at          screen_name  text   source
##    <chr>      <chr>               <dttm>              <chr>        <chr>  <chr> 
##  1 25365536   1466090565699657729 2021-12-01 17:03:24 KimKardashi~ "DROP~ Twitt~
##  2 27260086   1465396378704793602 2021-11-29 19:04:57 justinbieber "We l~ Twitt~
##  3 17919972   1463277431700262915 2021-11-23 22:45:00 taylorswift~ "NO P~ Twitt~
##  4 2557521    1466131371299164164 2021-12-01 19:45:32 espn         "Mica~ Sprin~
##  5 416814339  1465785416095875079 2021-11-30 20:50:50 JoelEmbiid   "Noth~ Twitt~
##  6 2176646084 1466159698697142274 2021-12-01 21:38:06 cstonehoops  "C'mo~ Twitt~
##  7 132981804  1466087923154100237 2021-12-01 16:52:54 KUHoops      "Us w~ Twitt~
##  8 16955870   1466128601242382348 2021-12-01 19:34:32 UpshotNYT    "Wron~ Socia~
##  9 2303751216 1466180071438356481 2021-12-01 22:59:03 FiveThirtyE~ "The ~ Socia~
## 10 69133574   1466139382822453254 2021-12-01 20:17:23 hadleywickh~ "@Jor~ Twitt~
## # ... with 11 more rows, and 84 more variables: display_text_width <int>,
## #   reply_to_status_id <chr>, reply_to_user_id <chr>,
## #   reply_to_screen_name <chr>, is_quote <lgl>, is_retweet <lgl>,
## #   favorite_count <int>, retweet_count <int>, quote_count <int>,
## #   reply_count <int>, hashtags <list>, symbols <list>, urls_url <list>,
## #   urls_t.co <list>, urls_expanded_url <list>, media_url <list>,
## #   media_t.co <list>, media_expanded_url <list>, media_type <list>, ...
…
