Assignment 9: Visualization - Revealing a graph
…
Right under each question, insert a code chunk (you can use the hotkey Ctrl + Alt + I to add a code chunk) and code the solution for the question.

Knit the rmarkdown file (hotkey: Ctrl + Alt + K) to export an html.

Publish the html file to your Githiub Page.

Submission: Submit the link on Github of the assignment to Canvas

Use the dataset by of covid 19 by WHO at https://covid19.who.int/WHO-COVID-19-global-data.csv. Find the three countries with the most numbers of deaths by Covid-19.

library(tidyverse)
df <- read_csv('https://covid19.who.int/WHO-COVID-19-global-data.csv')
df %>% filter(Date_reported == '2021-10-22')

## # A tibble: 237 x 8
##    Date_reported Country_code Country             WHO_region New_cases Cumulative_cases
##    <date>        <chr>        <chr>               <chr>          <dbl>            <dbl>
##  1 2021-10-22    AF           Afghanistan         EMRO              32           155891
##  2 2021-10-22    AL           Albania             EURO             566           180029
##  3 2021-10-22    DZ           Algeria             AFRO              70           205599
##  4 2021-10-22    AS           American Samoa      WPRO               0                4
##  5 2021-10-22    AD           Andorra             EURO               0            15382
##  6 2021-10-22    AO           Angola              AFRO             227            63567
##  7 2021-10-22    AI           Anguilla            AMRO              45              743
##  8 2021-10-22    AG           Antigua and Barbuda AMRO              45             3984
##  9 2021-10-22    AR           Argentina           AMRO            1218          5275984
## 10 2021-10-22    AM           Armenia             EURO            2146           291052
## # ... with 227 more rows, and 2 more variables: New_deaths <dbl>,
## #   Cumulative_deaths <dbl>
…
